…
  rm(info, info2, url, webpage, labels, label_list, temp_tib, name, val, element, i, j)
}

# export
pizza_week %>% select(-image) %>% save(file = "pizza_week.RData")
pizza_week %>% select(-image) %>% write_csv(file = "pizza_week_2024.csv")
```

This is what the pizza_week tibble looked like when I was done with it:


```
## # A tibble: 51 × 18
##    pizza         restaurant toppings description image address hours meat_veggie
##    <chr>         <chr>      <chr>    <chr>       <chr> <chr>   <chr> <chr>      
##  1 Butcher's Bo… Assembly … Fresh b… We wanted … http… 6159 S… 11am… Meat       
##  2 Butcher's Bo… Assembly … Fresh b… We wanted … http… 2934 N… 11am… Meat       
##  3 Homer's Hot … Atlas Piz… Garlic … D'oh! An h… http… 710 N.… Sun-… Meat       
##  4 The Arthur A… Atlas Piz… Garlic … At Atlas- … http… 3570 S… Mon-… Meat       
##  5 The Maize Ru… Atlas Piz… Jalapen… ¡Híjole! F… http… 6529 S… Mon-… Meat       
##  6 Chicken Shaw… Baby Doll… Mozzare… Creamy clo… http… 2835 S… Mond… Meat       
##  7 Smash or Pass Boxcar Pi… Mozzare… It's like … http… 2701 N… 11:3… Vegan      
##  8 Spicy Carrib… Brix Tave… Italian… Everybody … http… 1338 N… Mon-… Meat       
##  9 Carina Had a… Carina Lo… Braised… Carina had… http… 410 NW… Wed-… Meat       
## 10 Pizza Piedra  Clarklewis House m… Inspired b… http… 1001 S… Sun-… Meat       
## # ℹ 41 more rows
## # ℹ 10 more variables: veggie_sub <chr>, vegan_sub <chr>, gf <chr>,
## #   gf_sub <chr>, whole_slice <chr>, minors <chr>, takeout <chr>,
## #   delivery <chr>, purchase_limit <chr>, availability_limit <chr>
```
…
# look up gps coordinates
pizza_week <- pizza_week %>% geocode(address, method = 'arcgis', lat = latitude , long = longitude)
# convert coordinates to mercator
geometry <- as_tibble(sf_project(st_crs(4326), st_crs(3857), pizza_week %>% select(longitude, latitude)))
pizza_week <- pizza_week %>% bind_cols(geometry) %>% 
  rename(lon = V1, lat = V2)
```

Here is just a view of an abbreviated version of the resultant tibble:


```
## # A tibble: 51 × 7
##    pizza                    restaurant address latitude longitude    lat     lon
##    <chr>                    <chr>      <chr>      <dbl>     <dbl>  <dbl>   <dbl>
##  1 Butcher's Bolognese      Assembly … 6159 S…     45.5     -123. 5.70e6 -1.36e7
##  2 Butcher's Bolognese      Assembly … 2934 N…     45.6     -123. 5.71e6 -1.37e7
##  3 Homer's Hot Chicken Ody… Atlas Piz… 710 N.…     45.6     -123. 5.71e6 -1.37e7
##  4 The Arthur Ave           Atlas Piz… 3570 S…     45.5     -123. 5.70e6 -1.37e7
##  5 The Maize Runner         Atlas Piz… 6529 S…     45.5     -123. 5.70e6 -1.36e7
##  6 Chicken Shawarma!        Baby Doll… 2835 S…     45.5     -123. 5.70e6 -1.37e7
##  7 Smash or Pass            Boxcar Pi… 2701 N…     45.5     -123. 5.71e6 -1.37e7
##  8 Spicy Carribbean Pizza   Brix Tave… 1338 N…     45.5     -123. 5.70e6 -1.37e7
##  9 Carina Had a Little Lamb Carina Lo… 410 NW…     45.5     -123. 5.70e6 -1.37e7
## 10 Pizza Piedra             Clarklewis 1001 S…     45.5     -123. 5.70e6 -1.37e7
## # ℹ 41 more rows
```
…
