Racial Bias in Fatal Police Shootings | Jennifer Jahncke
…
The Data:

Despite the frequency with which incidents of police brutality occurs in the US, an official centralized record of police violence does not exist. In 2015 The Washington Post took matters into their own hands and created a database of every fatal shooting in the US by a police officer. The record is regularly updated (right now it is current as of June 8, 2020). Currently there are 5401 fatalities represented in the dataset. Here is just a glimpse at the data:

## # A tibble: 5,401 x 12
##    name  date       armed   age gender race  city  state threat_level flee 
##    <chr> <date>     <fct> <dbl> <fct>  <fct> <chr> <fct> <fct>        <fct>
##  1 Tim ~ 2015-01-02 gun      53 M      A     Shel~ WA    attack       Not ~
##  2 Lewi~ 2015-01-02 gun      47 M      W     Aloha OR    attack       Not ~
##  3 John~ 2015-01-03 unar~    23 M      H     Wich~ KS    other        Not ~
##  4 Matt~ 2015-01-04 toy ~    32 M      W     San ~ CA    attack       Not ~
##  5 Mich~ 2015-01-04 nail~    39 M      H     Evans CO    attack       Not ~
##  6 Kenn~ 2015-01-04 gun      18 M      W     Guth~ OK    attack       Not ~
##  7 Kenn~ 2015-01-05 gun      22 M      H     Chan~ AZ    attack       Car  
##  8 Broc~ 2015-01-06 gun      35 M      W     Assa~ KS    attack       Not ~
##  9 Autu~ 2015-01-06 unar~    34 F      W     Burl~ IA    other        Not ~
## 10 Lesl~ 2015-01-06 toy ~    47 M      B     Knox~ PA    attack       Not ~
## # ... with 5,391 more rows, and 2 more variables: body_camera <lgl>,
## #   signs_of_mental_illness <lgl>
…
2. Import and wrangle the census data.

# How many B/W people are in America from 2015-2020?
census_raw <- read_xlsx("census-data.xlsx")
# Convert units from millions
census <- census_raw %>% 
  mutate(W_pop = White * 1000000,
         B_pop = Black * 1000000)

census

## # A tibble: 21 x 5
##     Year White Black      W_pop     B_pop
##    <dbl> <dbl> <dbl>      <dbl>     <dbl>
##  1  2020  250.  43.6 249726667. 43577778.
##  2  2019  249.  43.4 249420000  43433333.
##  3  2018  250.  43.8 250140000  43800000 
##  4  2017  250.  43.5 249620000  43500000 
##  5  2016  248.  43   248500000  43000000 
##  6  2015  248.  42.6 247780000  42630000 
##  7  2014  247.  42.2 246660000  42160000 
##  8  2013  246.  41.7 245590000  41710000 
##  9  2012  245.  41.3 244510000  41260000 
## 10  2011  243.  40.8 243380000  40810000 
## # ... with 11 more rows
…
